{
    "KPlugin": {
        "Id": "calligrastagetoolanimation",
        "Name": "Animation Tool",
        "Name[ca@valencia]": "Eina d'animació",
        "Name[ca]": "Eina d'animació",
        "Name[cs]": "Nástroj pro animaci",
        "Name[en_GB]": "Animation Tool",
        "Name[eo]": "Animacia Ilo",
        "Name[es]": "Herramienta de animación",
        "Name[fr]": "Outils d'animation",
        "Name[gl]": "Ferramenta de animación",
        "Name[it]": "Strumento di animazione",
        "Name[ka]": "ანიმაციის ხელსაწყო",
        "Name[lv]": "Animāciju rīks",
        "Name[nl]": "Animatie-hulpmiddel",
        "Name[pl]": "Narzędzie animacji",
        "Name[sl]": "Orodje animacije",
        "Name[tr]": "Canlandırma Aracı",
        "Name[uk]": "Засіб для анімації",
        "Name[x-test]": "xxAnimation Toolxx",
        "Name[zh_TW]": "動畫工具",
        "ServiceTypes": [
            "CalligraStage/Tool"
        ]
    },
    "X-KPresenter-Version": "28"
}
