{
    "KPlugin": {
        "Name": "Karbon Flatten Path plugin",
        "Name[ca@valencia]": "Connector d'aplanament de camins de Karbon",
        "Name[ca]": "Connector d'aplanament de camins del Karbon",
        "Name[en_GB]": "Karbon Flatten Path plugin",
        "Name[eo]": "Karbon Flatten Path kromaĵo",
        "Name[es]": "Complemento aplanar ruta de Karbon",
        "Name[fr]": "Module externe d'étalement de l'emplacement pour Karbon",
        "Name[gl]": "Complemento para Karbon de ruta aplanada",
        "Name[it]": "Estensione Appiattimento percorsi di Karbon",
        "Name[ka]": "Karbon -ის ბილიკის გაბრტყელების დამატება",
        "Name[lv]": "„Karbon“ ceļa saplacināšanas spraudnis",
        "Name[nl]": "Plug-in voor pad van Karbon Flatten",
        "Name[pl]": "Wtyczka spłaszczania ścieżki dla Karbon",
        "Name[sl]": "Vtičnik Karbon Flatten Path",
        "Name[tr]": "Karbon Yolu Düzleştir Eklentisi",
        "Name[uk]": "Додаток спрощення контурів для Karbon",
        "Name[x-test]": "xxKarbon Flatten Path pluginxx",
        "Name[zh_TW]": "Karbon 《使路徑平坦》外掛程式",
        "ServiceTypes": [
            "Karbon/ViewPlugin"
        ]
    },
    "X-Karbon-Version": "28"
}
