{
    "KPlugin": {
        "Name": "Flow WPG Import Filter",
        "Name[ca@valencia]": "Filtre d'importació WPG de Flow",
        "Name[ca]": "Filtre d'importació WPG del Flow",
        "Name[cs]": "Importní filtr formátu WPG pro Flow",
        "Name[en_GB]": "Flow WPG Import Filter",
        "Name[eo]": "Flua WPG-Importa Filtrilo",
        "Name[es]": "Filtro de importación de Flow WPG",
        "Name[fr]": "Filtre d'importation « WPG » pour Flow",
        "Name[gl]": "Filtro para Flow de importación de WPG",
        "Name[it]": "Filtro di importazione WPG per Flow",
        "Name[ka]": "Flow WPG -ის შემოტანის ფილტრი",
        "Name[lv]": "„Flow“ WPG importa filtrs",
        "Name[nl]": "WPG-importfilter voor Flow",
        "Name[pl]": "Filtr importu WPG do Schematów",
        "Name[sl]": "Filter uvoza Flow WPG",
        "Name[tr]": "Flow WPG İçe Aktarma Süzgeci",
        "Name[uk]": "Фільтр імпортування WPG до Flow",
        "Name[x-test]": "xxFlow WPG Import Filterxx",
        "Name[zh_TW]": "Flow WPG 匯入過濾程式",
        "ServiceTypes": [
            "Calligra/Filter"
        ]
    },
    "X-KDE-Export": "application/vnd.oasis.opendocument.graphics",
    "X-KDE-Import": "application/x-wpg",
    "X-KDE-Weight": 1
}
