{
    "KPlugin": {
        "Id": "autocorrect",
        "Name": "Autocorrection plugin",
        "Name[ca@valencia]": "Connector de correcció automàtica",
        "Name[ca]": "Connector de correcció automàtica",
        "Name[cs]": "Modul pro automatické opravy",
        "Name[en_GB]": "Autocorrection plugin",
        "Name[eo]": "Aŭtokorekta kromaĵo",
        "Name[es]": "Complemento de corrección automática",
        "Name[fr]": "Module externe de correction automatique",
        "Name[gl]": "Complemento de corrección automática",
        "Name[it]": "Estensione di correzione automatica",
        "Name[ka]": "ავტოკორექციის დამატება",
        "Name[lv]": "Automātiskās labošanas spraudnis",
        "Name[nl]": "Autocorrectieplug-in",
        "Name[pl]": "Wtyczka samoczynnego poprawiania",
        "Name[sl]": "Vtičnik samodejnega popravljanja",
        "Name[tr]": "Kendiliğinden Düzeltme Eklentisi",
        "Name[uk]": "Додаток автовиправлення",
        "Name[x-test]": "xxAutocorrection pluginxx",
        "Name[zh_TW]": "Autocorrection 外掛程式",
        "ServiceTypes": [
            "Calligra/Text-EditingPlugin"
        ]
    },
    "X-KoText-MinVersion": "28",
    "X-KoText-PluginVersion": "28"
}
