{
    "KPlugin": {
        "Id": "calligra_docker_stencils",
        "Name": "Calligra Stencils Docker plugin",
        "Name[ca@valencia]": "Connector d'acobladors de plantilles de Calligra",
        "Name[ca]": "Connector d'acobladors de plantilles del Calligra",
        "Name[cs]": "Modul doků Calligra Stencils",
        "Name[en_GB]": "Calligra Stencils Docker plugin",
        "Name[eo]": "Calligra Stencils Docker kromaĵo",
        "Name[es]": "Complemento de panel de plantillas de Calligra",
        "Name[fr]": "Module externe de panneau pour Calligra Stencils",
        "Name[gl]": "Complemento de doca de figuras para Calligra",
        "Name[it]": "Estensione per le aree di aggancio delle forme di Calligra",
        "Name[ka]": "Calligra -ის სტენსილის ზოლის დამატება",
        "Name[lv]": "„Calligra“ trafaretu dokera spraudnis",
        "Name[nl]": "Vastzetterplug-in voor Calligra Stencils",
        "Name[pl]": "Wtyczka dokowań Szablonów Calligry",
        "Name[sl]": "Vtičnik Calligra Stencils Docker",
        "Name[tr]": "Calligra Stensil Docker Eklentisi",
        "Name[uk]": "Додаток панелі шаблонів для Calligra",
        "Name[x-test]": "xxCalligra Stencils Docker pluginxx",
        "Name[zh_TW]": "Calligra Stencils Docker 外掛程式",
        "ServiceTypes": [
            "Calligra/Dock"
        ]
    },
    "X-Flake-MinVersion": "28",
    "X-Flake-PluginVersion": "28"
}
