{
    "KPlugin": {
        "Icon": "",
        "Name": "Karbon WVG Export Filter",
        "Name[ca@valencia]": "Filtre d'exportació WVG de Karbon",
        "Name[ca]": "Filtre d'exportació WVG del Karbon",
        "Name[cs]": "Exportní filtr do formátu WVG pro Karbon",
        "Name[en_GB]": "Karbon WVG Export Filter",
        "Name[eo]": "Karbon WVG Eksporta Filtrilo",
        "Name[es]": "Filtro de exportación WVG de Karbon",
        "Name[fr]": "Filtre d'exportation « WVG » de Karbon",
        "Name[gl]": "Filtro para Karbon de exportación de WVG",
        "Name[it]": "Filtro di esportazione WVG per Karbon",
        "Name[ka]": "Karbon WVG გატანის ფილტრი",
        "Name[lv]": "„Karbon“ WVG eksporta filtrs",
        "Name[nl]": " WVG-exportfilter voor Karbon",
        "Name[pl]": "Filtr eksportu WVG z Karbon",
        "Name[sl]": "Karbon filter izvoza WVG",
        "Name[tr]": "Karbon WMG Dışa Aktarma Süzgeci",
        "Name[uk]": "Фільтр експорту WVG для Karbon",
        "Name[x-test]": "xxKarbon WVG Export Filterxx",
        "Name[zh_TW]": "Karbon WVG 匯出過濾程式",
        "ServiceTypes": [
            "Calligra/Filter"
        ]
    },
    "X-KDE-Export": "image/wvg+xml",
    "X-KDE-Import": "application/x-karbon",
    "X-KDE-Weight": 1
}
