{
    "KPlugin": {
        "Name": "Karbon WMF Import Filter",
        "Name[ca@valencia]": "Filtre d'importació WMF de Karbon",
        "Name[ca]": "Filtre d'importació WMF del Karbon",
        "Name[cs]": "Importní filtr WMF pro Karbon14",
        "Name[en_GB]": "Karbon WMF Import Filter",
        "Name[eo]": "Karbon WMF Importfiltrilo",
        "Name[es]": "Filtro de importación WMF de Karbon",
        "Name[fr]": "Filtre d'importation « WMF » de Karbon",
        "Name[gl]": "Filtro para Karbon de importación de WMF",
        "Name[it]": "Filtro di importazione WMF per Karbon",
        "Name[ka]": "Karbon WMF -ის შემოტანის ფილტრი",
        "Name[lv]": "„Karbon“ WMF importa filtrs",
        "Name[nl]": "WMF-importfilter voor Karbon",
        "Name[pl]": "Filtr importu WMF do Karbon",
        "Name[sl]": "Karbon filter uvoza WMF",
        "Name[tr]": "Karbon WMF İçe Aktarma Süzgeci",
        "Name[uk]": "Фільтр імпортування WMF до Karbon",
        "Name[x-test]": "xxKarbon WMF Import Filterxx",
        "Name[zh_TW]": "Karbon WMF 匯入過濾程式",
        "ServiceTypes": [
            "Calligra/Filter"
        ]
    },
    "X-KDE-Export": "image/svg+xml",
    "X-KDE-Import": "image/x-wmf",
    "X-KDE-Weight": 1
}
