{
    "KPlugin": {
        "Name": "Karbon WPG Import Filter",
        "Name[ca@valencia]": "Filtre d'importació WPG de Karbon",
        "Name[ca]": "Filtre d'importació WPG del Karbon",
        "Name[cs]": "Importní filtr formátu WPG pro Karbon",
        "Name[en_GB]": "Karbon WPG Import Filter",
        "Name[eo]": "Karbon WPG Importfiltrilo",
        "Name[es]": "Filtro de importación WPG de Karbon",
        "Name[fr]": "Filtre d'importation « WPG » de Karbon",
        "Name[gl]": "Filtro para Karbon de importación de WPG",
        "Name[it]": "Filtro di importazione WPG per Karbon",
        "Name[ka]": "Karbon WPG -ის შემოტანის ფილტრი",
        "Name[lv]": "„Karbon“ WPG importa filtrs",
        "Name[nl]": "WPG-importfilter voor Karbon",
        "Name[pl]": "Filtr importu WPG do Karbon",
        "Name[sl]": "Karbon filter uvoza WPG",
        "Name[tr]": "Karbon WPG İçe Aktarma Süzgeci",
        "Name[uk]": "Фільтр імпортування WPG до Karbon",
        "Name[x-test]": "xxKarbon WPG Import Filterxx",
        "Name[zh_TW]": "Karbon WPG 匯入過濾程式",
        "ServiceTypes": [
            "Calligra/Filter"
        ]
    },
    "X-KDE-Export": "image/svg+xml",
    "X-KDE-Import": "application/x-wpg",
    "X-KDE-Weight": 1
}
