{
    "KPlugin": {
        "Name": "Spreadsheet Shape",
        "Name[ca@valencia]": "Forma de full de càlcul",
        "Name[ca]": "Forma de full de càlcul",
        "Name[cs]": "Tvar sešitu",
        "Name[en_GB]": "Spreadsheet Shape",
        "Name[eo]": "Tabelfoli-Formo",
        "Name[es]": "Forma de hoja de cálculo",
        "Name[fr]": "Forme pour feuille de calcul",
        "Name[gl]": "Obxecto de folla de cálculo",
        "Name[it]": "Forma di foglio di calcolo",
        "Name[ka]": "ელცხრილის ფორმა",
        "Name[lv]": "Izklājlapu objekts",
        "Name[nl]": "Rekenblad-vorm",
        "Name[pl]": "Kształt arkusza kalkulacyjnego",
        "Name[sl]": "Oblika preglednice",
        "Name[tr]": "Çalışma Sayfası Şekli",
        "Name[uk]": "Форма електронної таблиці",
        "Name[x-test]": "xxSpreadsheet Shapexx",
        "Name[zh_TW]": "工作表元件",
        "ServiceTypes": [
            "Calligra/Deferred"
        ]
    },
    "X-DeferredID": "spreadsheetshape-deferred",
    "X-Flake-MinVersion": "28",
    "X-Flake-PluginVersion": "28"
}
