{
    "KPlugin": {
        "Name": "MS PowerPoint 2007 Import Filter for Stage",
        "Name[ca@valencia]": "Filtre d'importació Microsoft PowerPoint 2007 per a Stage",
        "Name[ca]": "Filtre d'importació Microsoft PowerPoint 2007 per a l'Stage",
        "Name[cs]": "Importní filtr MS PowerPoint 2007 pro Stage",
        "Name[en_GB]": "MS PowerPoint 2007 Import Filter for Stage",
        "Name[eo]": "MS PowerPoint 2007 Importfiltrilo por Scenejo",
        "Name[es]": "Filtro de importación MS PowerPoint 2007 para Stage",
        "Name[fr]": "Filtre d'importation « Microsoft PowerPoint 2007 » pour Stage",
        "Name[gl]": "Filtro de para Stage importación de MS PowerPoint 2007",
        "Name[it]": "Filtro di importazione MS PowerPoint 2007 per Stage",
        "Name[ka]": "MS PowerPoint 2007 -ის შემოტანის ფილტრი Stage-სთვის",
        "Name[lv]": "„Stage“ „MS PowerPoint 2007“ importa filtrs",
        "Name[nl]": "MS Powerpoint 2007 importfilter voor Stage",
        "Name[pl]": "Filtr importu Microsoft PowerPoint 2007 dla Sceny",
        "Name[sl]": "MS PowerPoint 2007 filter uvoza za Stage",
        "Name[tr]": "Sahne için MS PowerPoint 2007 İçe Aktarma Süzgeci",
        "Name[uk]": "Фільтр імпортування даних MS PowerPoint 2007 для Stage",
        "Name[x-test]": "xxMS PowerPoint 2007 Import Filter for Stagexx",
        "Name[zh_TW]": "Stage 的 Microsoft PowerPoint 2007 匯入過濾程式",
        "ServiceTypes": [
            "Calligra/Filter"
        ]
    },
    "X-KDE-Export": "application/vnd.oasis.opendocument.presentation",
    "X-KDE-Import": "application/vnd.openxmlformats-officedocument.presentationml.presentation,application/vnd.openxmlformats-officedocument.presentationml.template,application/vnd.openxmlformats-officedocument.presentationml.slideshow,application/vnd.ms-powerpoint.presentation.macroEnabled.12,application/vnd.ms-powerpoint.template.macroEnabled.12,application/vnd.ms-powerpoint.slideshow.macroEnabled.12",
    "X-KDE-Weight": 1
}
