{
    "KPlugin": {
        "Authors": [
            {
                "Email": "sven.langkamp@gmail.com",
                "Name": "Sven Langkamp",
                "Name[ca@valencia]": "Sven Langkamp",
                "Name[ca]": "Sven Langkamp",
                "Name[cs]": "Sven Langkamp",
                "Name[de]": "Sven Langkamp",
                "Name[el]": "Sven Langkamp",
                "Name[en_GB]": "Sven Langkamp",
                "Name[eo]": "Sven Langkamp",
                "Name[es]": "Sven Langkamp",
                "Name[et]": "Sven Langkamp",
                "Name[eu]": "Sven Langkamp",
                "Name[fi]": "Sven Langkamp",
                "Name[fr]": "Sven Langkamp",
                "Name[gl]": "Sven Langkamp",
                "Name[ia]": "Sven Langkamp",
                "Name[id]": "Sven Langkamp",
                "Name[it]": "Sven Langkamp",
                "Name[ka]": "Sven Langkamp",
                "Name[ko]": "Sven Langkamp",
                "Name[lv]": "Sven Langkamp",
                "Name[nl]": "Sven Langkamp",
                "Name[pl]": "Sven Langkamp",
                "Name[pt]": "Sven Langkamp",
                "Name[pt_BR]": "Sven Langkamp",
                "Name[ru]": "Sven Langkamp",
                "Name[sk]": "Sven Langkamp",
                "Name[sl]": "Sven Langkamp",
                "Name[sv]": "Sven Langkamp",
                "Name[tr]": "Sven Langkamp",
                "Name[uk]": "Sven Langkamp",
                "Name[x-test]": "xxSven Langkampxx",
                "Name[zh_CN]": "Sven Langkamp",
                "Name[zh_TW]": "Sven Langkamp"
            },
            {
                "Email": "kossebau@kde.org",
                "Name": "Friedrich W. H. Kossebau",
                "Name[ca@valencia]": "Friedrich W. H. Kossebau",
                "Name[ca]": "Friedrich W. H. Kossebau",
                "Name[cs]": "Friedrich W. H. Kossebau",
                "Name[de]": "Friedrich W. H. Kossebau",
                "Name[el]": "Friedrich W. H. Kossebau",
                "Name[en_GB]": "Friedrich W. H. Kossebau",
                "Name[eo]": "Friedrich W. H. Kossebau",
                "Name[es]": "Friedrich W. H. Kossebau",
                "Name[et]": "Friedrich W. H. Kossebau",
                "Name[eu]": "Friedrich W. H. Kossebau",
                "Name[fi]": "Friedrich W. H. Kossebau",
                "Name[fr]": "Friedrich W. H. Kossebau",
                "Name[gl]": "Friedrich W. H. Kossebau",
                "Name[ia]": "Friedrich W. H. Kossebau",
                "Name[id]": "Friedrich W. H. Kossebau",
                "Name[it]": "Friedrich W. H. Kossebau",
                "Name[ka]": "ფრიდრიჰ კოსებაუ",
                "Name[ko]": "Friedrich W. H. Kossebau",
                "Name[lv]": "Friedrich W. H. Kossebau",
                "Name[nl]": "Friedrich W. H. Kossebau",
                "Name[pl]": "Friedrich W. H. Kossebau",
                "Name[pt]": "Friedrich W. H. Kossebau",
                "Name[pt_BR]": "Friedrich W. H. Kossebau",
                "Name[ru]": "Friedrich W. H. Kossebau",
                "Name[sk]": "Friedrich W. H. Kossebau",
                "Name[sl]": "Friedrich W. H. Kossebau",
                "Name[sv]": "Friedrich W. H. Kossebau",
                "Name[tr]": "Friedrich W. H. Kossebau",
                "Name[uk]": "Friedrich W. H. Kossebau",
                "Name[x-test]": "xxFriedrich W. H. Kossebauxx",
                "Name[zh_CN]": "Friedrich W. H. Kossebau",
                "Name[zh_TW]": "Friedrich W. H. Kossebau"
            }
        ],
        "Copyright": "Copyright 2010-2016 Sven Langkamp, Friedrich W. H. Kossebau",
        "Copyright[ca@valencia]": "Copyright 2010-2016 Sven Langkamp, Friedrich W. H. Kossebau",
        "Copyright[ca]": "Copyright 2010-2016 Sven Langkamp, Friedrich W. H. Kossebau",
        "Copyright[cs]": "Autorská práva 2010-2016 Sven Langkamp, Friedrich W. H. Kossebau",
        "Copyright[de]": "Copyright 2010-2016 Sven Langkamp, Friedrich W. H. Kossebau",
        "Copyright[el]": "Copyright 2010-2016 Sven Langkamp, Friedrich W. H. Kossebau",
        "Copyright[en_GB]": "Copyright 2010-2016 Sven Langkamp, Friedrich W. H. Kossebau",
        "Copyright[eo]": "Kopirajto 2010-2016 Sven Langkamp, Friedrich W. H. Kossebau",
        "Copyright[es]": "Copyright 2010-2016 Sven Langkamp, Friedrich W. H. Kossebau",
        "Copyright[et]": "Autoriõigus 2010-2016: Sven Langkamp, Friedrich W. H. Kossebau",
        "Copyright[eu]": "Copyright 2010-2016 Sven Langkamp, Friedrich W. H. Kossebau",
        "Copyright[fi]": "Copyright 2010–2016 Sven Langkamp, Friedrich W. H. Kossebau",
        "Copyright[fr]": "Copyright 2010-2016 Sven Langkamp, Friedrich W. H. Kossebau",
        "Copyright[gl]": "© 2010-2016 Sven Langkamp, Friedrich W. H. Kossebau",
        "Copyright[ia]": "Copyright 2010-2016 Sven Langkamp, Friedrich W. H. Kossebau",
        "Copyright[id]": "Hakcipta 2010-2016 Sven Langkamp, Friedrich W. H. Kossebau",
        "Copyright[it]": "Copyright 2010-2016 Sven Langkamp, Friedrich W. H. Kossebau",
        "Copyright[ka]": "Copyright 2010-2016 Sven Langkamp, Friedrich W. H. Kossebau",
        "Copyright[ko]": "Copyright 2010-2016 Sven Langkamp, Friedrich W. H. Kossebau",
        "Copyright[lv]": "Autortiesības 2010—2016 Sven Langkamp, Friedrich W. H. Kossebau",
        "Copyright[nl]": "Copyright 2010-2016 Sven Langkamp, Friedrich W. H. Kossebau",
        "Copyright[pl]": "Copyright 2010-2016 Sven Langkamp, Friedrich W. H. Kossebau",
        "Copyright[pt]": "Copyright 2010-2016 Sven Langkamp, Friedrich W. H. Kossebau",
        "Copyright[pt_BR]": "Copyright 2010-2016 Sven Langkamp, Friedrich W. H. Kossebau",
        "Copyright[ru]": "© Sven Langkamp, Friedrich W. H. Kossebau, 2010-2016",
        "Copyright[sk]": "Copyright 2010-2016 Sven Langkamp, Friedrich W. H. Kossebau",
        "Copyright[sl]": "Copyright 2010-2016 Sven Langkamp, Friedrich W. H. Kossebau",
        "Copyright[sv]": "Copyright 2010-2016 Sven Langkamp, Friedrich W. H. Kossebau",
        "Copyright[tr]": "Telif hakkı 2010-2016 Sven Langkamp, Friedrich W. H. Kossebau",
        "Copyright[uk]": "© Sven Langkamp, Friedrich W. H. Kossebau, 2010–2016",
        "Copyright[x-test]": "xxCopyright 2010-2016 Sven Langkamp, Friedrich W. H. Kossebauxx",
        "Copyright[zh_CN]": "Copyright 2010-2016 Sven Langkamp, Friedrich W. H. Kossebau",
        "Copyright[zh_TW]": "Copyright 2010-2016 Sven Langkamp, Friedrich W. H. Kossebau",
        "Description": "PPTX file renderer",
        "Description[ca@valencia]": "Representació de fitxers PPTX",
        "Description[ca]": "Representació de fitxers PPTX",
        "Description[cs]": "Vykreslovač souborů PPTX",
        "Description[de]": "Renderer für PPTX-Dateien",
        "Description[el]": "Άρθρωμα αποτύπωσης PPTX αρχείου",
        "Description[en_GB]": "PPTX file renderer",
        "Description[eo]": "PPTX-dosiera bildigilo",
        "Description[es]": "Motor de visualización para archivos PPTX",
        "Description[et]": "PPTX-faili renderdaja",
        "Description[eu]": "PPTX-fitxategi errendatzailea",
        "Description[fi]": "PPTX-tiedostohahmonnin",
        "Description[fr]": "Rendu de fichiers PPTX",
        "Description[gl]": "Renderizador de ficheiros PPTX.",
        "Description[id]": "Perender file PPTX",
        "Description[it]": "Presentatore file PPTX",
        "Description[ka]": "PPTX ფაილის რენდერერი",
        "Description[ko]": "PPTX 파일 렌더러",
        "Description[lv]": "PPTX datnes atveidotājs",
        "Description[nl]": "PPTX-bestandsweergave",
        "Description[pl]": "Wyświetlanie pliku PPTX",
        "Description[pt]": "Visualizador de ficheiros PPTX",
        "Description[pt_BR]": "Renderização de arquivos PPTX",
        "Description[ru]": "Средство визуализации файла формата PPTX",
        "Description[sk]": "Zobrazovač súborov PPTX",
        "Description[sl]": "Prikazovalnik predstavitev PPTX",
        "Description[sv]": "PPTX-filåtergivning",
        "Description[tr]": "PPTX dosyası sunucu",
        "Description[uk]": "Засіб показу вмісту файлів PPTX",
        "Description[x-test]": "xxPPTX file rendererxx",
        "Description[zh_CN]": "PPTX 文件渲染器",
        "Description[zh_TW]": "PPTX 檔案繪製器",
        "Id": "okularGenerator_pptx_calligra",
        "License": "GPL",
        "MimeTypes": [
            "application/vnd.openxmlformats-officedocument.presentationml.presentation",
            "application/vnd.openxmlformats-officedocument.presentationml.template"
        ],
        "Name": "PPTX Backend",
        "Name[ca@valencia]": "Dorsal de PPTX",
        "Name[ca]": "Dorsal de PPTX",
        "Name[cs]": "Podpůrná vrstva PPTX",
        "Name[de]": "PPTX-Backend",
        "Name[el]": "Σύστημα υποστήριξης PPTX",
        "Name[en_GB]": "PPTX Backend",
        "Name[eo]": "PPTX-Backend",
        "Name[es]": "Motor PPTX",
        "Name[et]": "PPTX taustaprogramm",
        "Name[eu]": "PPTX bizkarraldekoa",
        "Name[fi]": "PPTX-taustaosa",
        "Name[fr]": "Moteur PPTX",
        "Name[gl]": "Motor de PPTX",
        "Name[ia]": "Retro-Administration de PPTX",
        "Name[id]": "Backend PPTX",
        "Name[it]": "Motore PPTX",
        "Name[ka]": "PPTX -ის უკანაბოლო",
        "Name[ko]": "PPTX 백엔드",
        "Name[lv]": "PPTX aizmugursistēma",
        "Name[nl]": "PPTX-backend",
        "Name[pl]": "Silnik PPTX",
        "Name[pt]": "Infra-Estrutura para PPTX",
        "Name[pt_BR]": "Infraestrutura PPTX",
        "Name[ru]": "Модуль поддержки PPTX",
        "Name[sk]": "PPTX Backend",
        "Name[sl]": "Zaledje PPTX",
        "Name[sv]": "PPTX-gränssnitt",
        "Name[tr]": "PPTX Arka Ucu",
        "Name[uk]": "Модуль обробки PPTX",
        "Name[x-test]": "xxPPTX Backendxx",
        "Name[zh_CN]": "PPTX 后端",
        "Name[zh_TW]": "PPTX 後端",
        "ServiceTypes": [
            "okular/Generator"
        ],
        "Version": "2.99.5"
    },
    "X-KDE-Priority": 1,
    "X-KDE-okularAPIVersion": 1,
    "X-KDE-okularHasInternalSettings": false
}
