{
    "KPlugin": {
        "Name": "Karbon EPS Import Filter",
        "Name[ca@valencia]": "Filtre d'importació EPS de Karbon",
        "Name[ca]": "Filtre d'importació EPS del Karbon",
        "Name[cs]": "Importní filtr do formátu EPS pro Karbon",
        "Name[en_GB]": "Karbon EPS Import Filter",
        "Name[eo]": "Karbon EPS-Importfiltrilo",
        "Name[es]": "Filtro de importación EPS de Karbon",
        "Name[fr]": "Filtre d'importation « EPS » de Karbon",
        "Name[gl]": "Filtro para Karbon de importación de EPS",
        "Name[it]": "Filtro di importazione EPS per Karbon",
        "Name[ka]": "Karbon EPS შემოტანის ფილტრი",
        "Name[lv]": "„Karbon“ EPS importa filtrs",
        "Name[nl]": "EPS-importfilter voor Karbon",
        "Name[pl]": "Filtr importu EPS do Karbon",
        "Name[sl]": "Karbon filter uvoza EPS",
        "Name[tr]": "Karbon EPS İçe Aktarma Süzgeci",
        "Name[uk]": "Фільтр експорту EPS для Karbon",
        "Name[x-test]": "xxKarbon EPS Import Filterxx",
        "Name[zh_TW]": "Karbon EPS 匯入過濾程式",
        "ServiceTypes": [
            "Calligra/Filter"
        ]
    },
    "X-KDE-Export": "application/illustrator",
    "X-KDE-Import": "application/postscript",
    "X-KDE-Weight": 1
}
