{
    "CacheThumbnail": true,
    "KPlugin": {
        "MimeTypes": [
            "application/vnd.oasis.opendocument.graphics",
            "application/vnd.oasis.opendocument.graphics-template",
            "application/vnd.visio",
            "application/x-wpg",
            "application/x-karbon",
            "image/x-wmf",
            "application/x-wpg",
            "image/x-xfig",
            "application/x-iwork-keynote-sffkey"
        ],
        "Name": "Images (OpenDocument, MS Visio, WordPerfect, ...)",
        "Name[ca@valencia]": "Imatges (OpenDocument, MS Visio, WordPerfect…)",
        "Name[ca]": "Imatges (OpenDocument, MS Visio, WordPerfect,...)",
        "Name[en_GB]": "Images (OpenDocument, MS Visio, WordPerfect, ...)",
        "Name[eo]": "Bildoj (OpenDocument, MS Visio, WordPerfect, ...)",
        "Name[es]": "Imágenes (OpenDocument, MS Visio, WordPerfect...)",
        "Name[fr]": "Images (OpenDocument, MS Visio, WordPerfect, ...)",
        "Name[it]": "Immagini (OpenDocument, MS Visio, WordPerfect, ...)",
        "Name[ka]": "გამოსახულებები (OpenDocument, MS Visio, WordPerfect, ...)",
        "Name[nl]": "Afbeeldingen (OpenDocument, MS Visio, WordPerfect, ...)",
        "Name[pl]": "Obrazy (OpenDocument, MS Visio, WordPerfect, ...)",
        "Name[sl]": "Slike (OpenDocument, MS Visio, WordPerfect, ...)",
        "Name[tr]": "Görseller (OpenDocument, MS Visio, WordPerfect, …)",
        "Name[uk]": "Зображення (OpenDocument, MS Visio, WordPerfect, ...)",
        "Name[x-test]": "xxImages (OpenDocument, MS Visio, WordPerfect, ...)xx",
        "ServiceTypes": [
            "ThumbCreator"
        ]
    }
}
