{
    "KPlugin": {
        "Name": "ODT to HTML Export Filter",
        "Name[ca@valencia]": "Filtre d'exportació ODT a HTML",
        "Name[ca]": "Filtre d'exportació ODT a HTML",
        "Name[cs]": "Exportní filtr ODT do HTML",
        "Name[en_GB]": "ODT to HTML Export Filter",
        "Name[eo]": "ODT al HTML-Eksporta Filtrilo",
        "Name[es]": "Filtro de exportación ODT a HTML",
        "Name[fr]": "Filtre d'exportation du format « ODT » vers « HTML »",
        "Name[gl]": "Filtro de exportacións de ODT a HTML",
        "Name[it]": "Filtro di esportazione da ODT a HTML",
        "Name[ka]": "ODT -დან HTML -ში გატანის ფილტრი",
        "Name[lv]": "No ODT uz HTML eksporta filtrs",
        "Name[nl]": "ODT naar HTML exportfilter",
        "Name[pl]": "Filtr eksportu ODT do HTML",
        "Name[sl]": "Filter izvoza ODT v HTML",
        "Name[tr]": "ODT-HTML Dışa Aktarma Süzgeci",
        "Name[uk]": "Фільтр експорту ODT до HTML",
        "Name[x-test]": "xxODT to HTML Export Filterxx",
        "Name[zh_TW]": "ODT 到 HTML 匯出過濾程式",
        "ServiceTypes": [
            "Calligra/Filter"
        ]
    },
    "X-KDE-Export": "text/html",
    "X-KDE-Import": "application/vnd.oasis.opendocument.text",
    "X-KDE-Weight": 1
}
