{
    "KPlugin": {
        "Description": "Edge Wipe Page Effects",
        "Description[ca@valencia]": "Efectes d'esborrat de vora de la pàgina",
        "Description[ca]": "Efectes d'esborrat de vora de la pàgina",
        "Description[en_GB]": "Edge Wipe Page Effects",
        "Description[eo]": "Rand-Viŝaj Paĝ-Efektoj",
        "Description[es]": "Efectos de página de borrado de bordes",
        "Description[fr]": "Effets de page de l'effaceur de bords",
        "Description[gl]": "Efectos para as páxinas de varrido polo bordo.",
        "Description[it]": "Effetti di transizione a bordo delle pagine",
        "Description[ka]": "წიბოს გაწმენდის გვერდის ეფექტი",
        "Description[lv]": "Malas noslaucīšanas lapas efekti",
        "Description[nl]": "Randvegen pagina-effecten",
        "Description[pl]": "Efekt wycierania strony krawędzią",
        "Description[sl]": "Učinek zavese z robom",
        "Description[tr]": "Kenar Sil Sayfa Efektleri",
        "Description[uk]": "Ефект витирання сторінки з країв",
        "Description[x-test]": "xxEdge Wipe Page Effectsxx",
        "Description[zh_TW]": "邊緣掃描頁面效果",
        "Id": "kpr_pageeffect_edgewipe",
        "Name": "Edge wipe",
        "Name[ca@valencia]": "Esborrat de vora",
        "Name[ca]": "Esborrat de vora",
        "Name[en_GB]": "Edge wipe",
        "Name[eo]": "Randviŝo",
        "Name[es]": "Borrado de bordes",
        "Name[fr]": "Effaceur de bords",
        "Name[gl]": "Varrido polo bordo",
        "Name[it]": "Transizione a bordo",
        "Name[ka]": "წიბოს გაწმენდა",
        "Name[lv]": "Malas noslaucīšana",
        "Name[nl]": "Randvegen",
        "Name[pl]": "Wycieranie krawędziowe",
        "Name[sl]": "Zavesa - rob",
        "Name[tr]": "Kenar Sil",
        "Name[uk]": "Витирання з країв",
        "Name[x-test]": "xxEdge wipexx",
        "Name[zh_TW]": "邊緣掃描",
        "ServiceTypes": [
            "CalligraStage/PageEffect"
        ]
    },
    "X-KPresenter-Version": "28"
}
