{
    "KPlugin": {
        "Id": "videoshape",
        "Name": "Video Shape",
        "Name[ca@valencia]": "Forma de vídeo",
        "Name[ca]": "Forma de vídeo",
        "Name[cs]": "Tvar Video",
        "Name[en_GB]": "Video Shape",
        "Name[eo]": "Filmeta Formo",
        "Name[es]": "Forma de vídeo",
        "Name[fr]": "Forme de vidéo",
        "Name[gl]": "Obxecto de vídeo",
        "Name[it]": "Forma video",
        "Name[ka]": "ვიდეოს ფორმა",
        "Name[lv]": "Video objekts",
        "Name[nl]": "Video-vorm",
        "Name[pl]": "Kształt wideo",
        "Name[sl]": "Oblika videa",
        "Name[tr]": "Video Şekli",
        "Name[uk]": "Форма-відео",
        "Name[x-test]": "xxVideo Shapexx",
        "Name[zh_TW]": "影片元件",
        "ServiceTypes": [
            "Calligra/Shape"
        ]
    },
    "X-Flake-MinVersion": "28",
    "X-Flake-PluginVersion": "28"
}
