{
    "KPlugin": {
        "Icon": "",
        "Name": "KSpread LATEX Export Filter",
        "Name[ca@valencia]": "Filtre d'exportació LaTeX de KSpread",
        "Name[ca]": "Filtre d'exportació LaTeX del KSpread",
        "Name[cs]": "KSpread LaTeX exportní filtr",
        "Name[en_GB]": "KSpread LATEX Export Filter",
        "Name[eo]": "KSpread LATEKSA Eksporta Filtrilo",
        "Name[es]": "Filtro de exportación LATEX de KSpread",
        "Name[fr]": "Filtre d'exportation « LaTeX » de KSpread",
        "Name[gl]": "Filtro para KSpread de exportación de LATEX",
        "Name[it]": "Filtro di esportazione LaTeX per KSpread",
        "Name[ka]": "KSpread LATEX -ის გატანის ფილტრი",
        "Name[lv]": "„KSpread“ LATEX eksporta filtrs",
        "Name[nl]": "LATEX-exportfilter voor KSpread",
        "Name[pl]": "Filtr eksportu LaTeX z KSpread",
        "Name[sl]": "KSpread filter izvoza za LATEX",
        "Name[tr]": "KSpread LaTeX Dışa Aktarma Süzgeci",
        "Name[uk]": "Фільтр експорту LATEX для KSpread",
        "Name[x-test]": "xxKSpread LATEX Export Filterxx",
        "Name[zh_TW]": "KSpread LATEX 匯出過濾程式",
        "ServiceTypes": [
            "Calligra/Filter"
        ]
    },
    "X-KDE-Export": "text/x-tex",
    "X-KDE-Import": "application/x-kspread",
    "X-KDE-Weight": 1
}
