{
    "KPlugin": {
        "Description": "A plugin to map location items between document and RDF database",
        "Description[ca@valencia]": "Un connector per a relacionar elements d'ubicació entre documents i una base de dades RDF",
        "Description[ca]": "Un connector per a relacionar elements d'ubicació entre documents i una base de dades RDF",
        "Description[en_GB]": "A plugin to map location items between document and RDF database",
        "Description[eo]": "Kromprogramo por mapi lokaĵojn inter dokumento kaj RDF-datumbazo",
        "Description[es]": "Complemento para asignar elementos de ubicación entre el documento y la base de datos RDF",
        "Description[fr]": "Un module externe pour faire correspondre les éléments de localisation entre un document et une base de données « RDF »",
        "Description[gl]": "Un complemento para asociar elementos de lugar entre un documento e unha base de datos RDF.",
        "Description[it]": "Una estensione per associare le posizioni tra documento e database RDF",
        "Description[ka]": "დამატება, რომელიც RDF ბაზასა და დოკუმენტის რუკის ელემენტების ასახვას განაგებს",
        "Description[lv]": "Spraudnis atrašanās vietas vienību kartēšanai starp dokumentiem un RDF datubāzi",
        "Description[nl]": "Een plug-in om verbinding te maken tussen locatie-items in een document en een RDF-database",
        "Description[pl]": "Wtyczka do mapowania elementów położeń pomiędzy dokumentem a bazą danych RDF",
        "Description[sl]": "Vtičnik za preslikavo elementov lokacije med dokumentom in bazo podatkov RDF",
        "Description[tr]": "Belge ve RDF veritabanı arasında konum ögelerini eşlemlemek için bir eklenti",
        "Description[uk]": "Додаток для створення зв’язку між записами місць у документі та у базі даних RDF",
        "Description[x-test]": "xxA plugin to map location items between document and RDF databasexx",
        "Description[zh_TW]": "讓文件與 RDF 資料庫位置項目對應的外掛程式",
        "Id": "calligra_semanticitem_location",
        "Name": "RDF Location Plugin",
        "Name[ca@valencia]": "Connector d'ubicació RDF",
        "Name[ca]": "Connector d'ubicació RDF",
        "Name[en_GB]": "RDF Location Plugin",
        "Name[eo]": "RDF-Lokiga Kromaĵo",
        "Name[es]": "Complemento de ubicación RDF",
        "Name[fr]": "Module externe d'emplacement « RDF »",
        "Name[gl]": "Complemento de lugar de RDF",
        "Name[it]": "Estensione RDF di posizione",
        "Name[ka]": "RDF მდებარეობის დამატება",
        "Name[lv]": "RDF atrašanās vietas spraudnis",
        "Name[nl]": "Plug-in voor RDF-locatie",
        "Name[pl]": "Wtyczka położenia RDF",
        "Name[sl]": "Vtičnik RDF lokacije",
        "Name[tr]": "RDF Konum Eklentisi",
        "Name[uk]": "Додаток місць RDF",
        "Name[x-test]": "xxRDF Location Pluginxx",
        "Name[zh_TW]": "RDF 位置外掛程式",
        "ServiceTypes": [
            "Calligra/SemanticItem"
        ]
    },
    "X-Calligra-MinVersion": "28",
    "X-Calligra-PluginVersion": "28"
}
