{
    "KPlugin": {
        "Authors": [
            {
                "Email": "calligra-devel@kde.org",
                "Name": "The KSpread Team",
                "Name[ca@valencia]": "L'equip de KSpread",
                "Name[ca]": "L'equip del KSpread",
                "Name[en_GB]": "The KSpread Team",
                "Name[eo]": "La KSpread-Teamo",
                "Name[es]": "El equipo de KSpread",
                "Name[fr]": "L'équipe de KSpread",
                "Name[gl]": "Equipo de KSpread",
                "Name[it]": "La squadra di KSpread",
                "Name[ka]": "KSpread-ის გუნდი",
                "Name[lv]": "„KSpread“ komanda",
                "Name[nl]": "Het team van KSpread",
                "Name[pl]": "Zespół KSpread",
                "Name[sl]": "Ekipa KSpread",
                "Name[tr]": "KSpread Takımı",
                "Name[uk]": "Команда KSpread",
                "Name[x-test]": "xxThe KSpread Teamxx",
                "Name[zh_TW]": "KSpread 團隊"
            }
        ],
        "Category": "FunctionModule",
        "Description": "DAVERAGE, DCOUNT, DCOUNTA, DGET, DMAX, DMIN, DPRODUCT, DSTDEV, DSTDEVP, DSUM, DVAR, DVARP, GETPIVOTDATA",
        "Description[ca@valencia]": "DAVERAGE, DCOUNT, DCOUNTA, DGET, DMAX, DMIN, DPRODUCT, DSTDEV, DSTDEVP, DSUM, DVAR, DVARP, GETPIVOTDATA",
        "Description[ca]": "DAVERAGE, DCOUNT, DCOUNTA, DGET, DMAX, DMIN, DPRODUCT, DSTDEV, DSTDEVP, DSUM, DVAR, DVARP, GETPIVOTDATA",
        "Description[en_GB]": "DAVERAGE, DCOUNT, DCOUNTA, DGET, DMAX, DMIN, DPRODUCT, DSTDEV, DSTDEVP, DSUM, DVAR, DVARP, GETPIVOTDATA",
        "Description[eo]": "DAVERAGE, DCOUNT, DCOUNTA, DGET, DMAX, DMIN, DPRODUCT, DSTDEV, DSTDEVP, DSUM, DVAR, DVARP, GETPIVOTDATA",
        "Description[es]": "DAVERAGE, DCOUNT, DCOUNTA, DGET, DMAX, DMIN, DPRODUCT, DSTDEV, DSTDEVP, DSUM, DVAR, DVARP, GETPIVOTDATA",
        "Description[fr]": "DAVERAGE, DCOUNT, DCOUNTA, DGET, DMAX, DMIN, DPRODUCT, DSTDEV, DSTDEVP, DSUM, DVAR, DVARP, GETPIVOTDATA",
        "Description[gl]": "DAVERAGE, DCOUNT, DCOUNTA, DGET, DMAX, DMIN, DPRODUCT, DSTDEV, DSTDEVP, DSUM, DVAR, DVARP, GETPIVOTDATA.",
        "Description[it]": "DAVERAGE, DCOUNT, DCOUNTA, DGET, DMAX, DMIN, DPRODUCT, DSTDEV, DSTDEVP, DSUM, DVAR, DVARP, GETPIVOTDATA",
        "Description[ka]": "DAVERAGE, DCOUNT, DCOUNTA, DGET, DMAX, DMIN, DPRODUCT, DSTDEV, DSTDEVP, DSUM, DVAR, DVARP, GETPIVOTDATA",
        "Description[lv]": "DAVERAGE, DCOUNT, DCOUNTA, DGET, DMAX, DMIN, DPRODUCT, DSTDEV, DSTDEVP, DSUM, DVAR, DVARP, GETPIVOTDATA",
        "Description[nl]": "DAVERAGE, DCOUNT, DCOUNTA, DGET, DMAX, DMIN, DPRODUCT, DSTDEV, DSTDEVP, DSUM, DVAR, DVARP, GETPIVOTDATA",
        "Description[pl]": "DAVERAGE, DCOUNT, DCOUNTA, DGET, DMAX, DMIN, DPRODUCT, DSTDEV, DSTDEVP, DSUM, DVAR, DVARP, GETPIVOTDATA",
        "Description[sl]": "DAVERAGE, DCOUNT, DCOUNTA, DGET, DMAX, DMIN, DPRODUCT, DSTDEV, DSTDEVP, DSUM, DVAR, DVARP, GETPIVOTDATA",
        "Description[tr]": "DAVERAGE, DCOUNT, DCOUNTA, DGET, DMAX, DMIN, DPRODUCT, DSTDEV, DSTDEVP, DSUM, DVAR, DVARP, GETPIVOTDATA",
        "Description[uk]": "DAVERAGE, DCOUNT, DCOUNTA, DGET, DMAX, DMIN, DPRODUCT, DSTDEV, DSTDEVP, DSUM, DVAR, DVARP, GETPIVOTDATA",
        "Description[x-test]": "xxDAVERAGE, DCOUNT, DCOUNTA, DGET, DMAX, DMIN, DPRODUCT, DSTDEV, DSTDEVP, DSUM, DVAR, DVARP, GETPIVOTDATAxx",
        "Description[zh_TW]": "DAVERAGE, DCOUNT, DCOUNTA, DGET, DMAX, DMIN, DPRODUCT, DSTDEV, DSTDEVP, DSUM, DVAR, DVARP, GETPIVOTDATA",
        "EnabledByDefault": true,
        "Icon": "funct",
        "Id": "DatabaseModule",
        "License": "GPL",
        "Name": "Database Functions",
        "Name[ca@valencia]": "Funcions de base de dades",
        "Name[ca]": "Funcions de base de dades",
        "Name[cs]": "Funkce databází",
        "Name[en_GB]": "Database Functions",
        "Name[eo]": "Datumbazaj Funkcioj",
        "Name[es]": "Funciones de bases de datos",
        "Name[fr]": "Fonctions de base de données",
        "Name[gl]": "Funcións de bases de datos",
        "Name[it]": "Funzioni per banche dati",
        "Name[ka]": "მონაცემთა ბაზის ფუნქციები",
        "Name[lv]": "Datubāzes funkcijas",
        "Name[nl]": "Databasefucties",
        "Name[pl]": "Funkcje baz danych",
        "Name[sl]": "Funkcije podatkovne baze",
        "Name[tr]": "Veritabanı İşlevleri",
        "Name[uk]": "Функції баз даних",
        "Name[x-test]": "xxDatabase Functionsxx",
        "Name[zh_TW]": "資料庫函數",
        "ServiceTypes": [
            "CalligraSheets/Plugin",
            "KPluginInfo"
        ],
        "Version": "1.0",
        "Website": "http://www.calligra.org/"
    },
    "X-CalligraSheets-InterfaceVersion": "0"
}
