{
    "KPlugin": {
        "Authors": [
            {
                "Email": "calligra-devel@kde.org",
                "Name": "The KSpread Team",
                "Name[ca@valencia]": "L'equip de KSpread",
                "Name[ca]": "L'equip del KSpread",
                "Name[en_GB]": "The KSpread Team",
                "Name[eo]": "La KSpread-Teamo",
                "Name[es]": "El equipo de KSpread",
                "Name[fr]": "L'équipe de KSpread",
                "Name[gl]": "Equipo de KSpread",
                "Name[it]": "La squadra di KSpread",
                "Name[ka]": "KSpread-ის გუნდი",
                "Name[lv]": "„KSpread“ komanda",
                "Name[nl]": "Het team van KSpread",
                "Name[pl]": "Zespół KSpread",
                "Name[sl]": "Ekipa KSpread",
                "Name[tr]": "KSpread Takımı",
                "Name[uk]": "Команда KSpread",
                "Name[x-test]": "xxThe KSpread Teamxx",
                "Name[zh_TW]": "KSpread 團隊"
            }
        ],
        "Category": "FunctionModule",
        "Description": "ASC, BAHTTEXT, CHAR, CLEAN, CODE, COMPARE, CONCATENATE, DOLLAR, EXACT, FIND, FIXED, JIS, LEFT, LEN, LOWER, MID, PROPER, REGEXP, REGEXPRE, REPLACE, REPT, RIGHT, ROT, SEARCH, SLEEK, SUBSTITUTE, T, TEXT, TOGGLE, TRIM, UNICHAR, UNICODE, UPPER, VALUE",
        "Description[ca@valencia]": "ASC, BAHTTEXT, CHAR, CLEAN, CODE, COMPARE, CONCATENATE, DOLLAR, EXACT, FIND, FIXED, JIS, LEFT, LEN, LOWER, MID, PROPER, REGEXP, REGEXPRE, REPLACE, REPT, RIGHT, ROT, SEARCH, SLEEK, SUBSTITUTE, T, TEXT, TOGGLE, TRIM, UNICHAR, UNICODE, UPPER, VALUE",
        "Description[ca]": "ASC, BAHTTEXT, CHAR, CLEAN, CODE, COMPARE, CONCATENATE, DOLLAR, EXACT, FIND, FIXED, JIS, LEFT, LEN, LOWER, MID, PROPER, REGEXP, REGEXPRE, REPLACE, REPT, RIGHT, ROT, SEARCH, SLEEK, SUBSTITUTE, T, TEXT, TOGGLE, TRIM, UNICHAR, UNICODE, UPPER, VALUE",
        "Description[en_GB]": "ASC, BAHTTEXT, CHAR, CLEAN, CODE, COMPARE, CONCATENATE, DOLLAR, EXACT, FIND, FIXED, JIS, LEFT, LEN, LOWER, MID, PROPER, REGEXP, REGEXPRE, REPLACE, REPT, RIGHT, ROT, SEARCH, SLEEK, SUBSTITUTE, T, TEXT, TOGGLE, TRIM, UNICHAR, UNICODE, UPPER, VALUE",
        "Description[eo]": "ASC, BAHTTEXT, CHAR, CLEAN, CODE, COMPARE, CONCATENATE, DOLLAR, EXACT, FIND, FIXED, JIS, LEFT, LEN, LOWER, MID, PROPER, REGEXP, REGEXPRE, REPLACE, REPT, RIGHT, ROT, SEARCH, SLEEK, SUBSTITUTE, T, TEXT, TOGGLE, TRIM, UNICHAR, UNICODE, UPPER, VALUE",
        "Description[es]": "ASC, BAHTTEXT, CHAR, CLEAN, CODE, COMPARE, CONCATENATE, DOLLAR, EXACT, FIND, FIXED, JIS, LEFT, LEN, LOWER, MID, PROPER, REGEXP, REGEXPRE, REPLACE, REPT, RIGHT, ROT, SEARCH, SLEEK, SUBSTITUTE, T, TEXT, TOGGLE, TRIM, UNICHAR, UNICODE, UPPER, VALUE",
        "Description[fr]": "ASC, BAHTTEXT, CHAR, CLEAN, CODE, COMPARE, CONCATENATE, DOLLAR, EXACT, FIND, FIXED, JIS, LEFT, LEN, LOWER, MID, PROPER, REGEXP, REGEXPRE, REPLACE, REPT, RIGHT, ROT, SEARCH, SLEEK, SUBSTITUTE, T, TEXT, TOGGLE, TRIM, UNICHAR, UNICODE, UPPER, VALUE",
        "Description[gl]": "ASC, BAHTTEXT, CHAR, CLEAN, CODE, COMPARE, CONCATENATE, DOLLAR, EXACT, FIND, FIXED, JIS, LEFT, LEN, LOWER, MID, PROPER, REGEXP, REGEXPRE, REPLACE, REPT, RIGHT, ROT, SEARCH, SLEEK, SUBSTITUTE, T, TEXT, TOGGLE, TRIM, UNICHAR, UNICODE, UPPER, VALUE.",
        "Description[it]": "ASC, BAHTTEXT, CHAR, CLEAN, CODE, COMPARE, CONCATENATE, DOLLAR, EXACT, FIND, FIXED, JIS, LEFT, LEN, LOWER, MID, PROPER, REGEXP, REGEXPRE, REPLACE, REPT, RIGHT, ROT, SEARCH, SLEEK, SUBSTITUTE, T, TEXT, TOGGLE, TRIM, UNICHAR, UNICODE, UPPER, VALUE",
        "Description[ka]": "ASC, BAHTTEXT, CHAR, CLEAN, CODE, COMPARE, CONCATENATE, DOLLAR, EXACT, FIND, FIXED, JIS, LEFT, LEN, LOWER, MID, PROPER, REGEXP, REGEXPRE, REPLACE, REPT, RIGHT, ROT, SEARCH, SLEEK, SUBSTITUTE, T, TEXT, TOGGLE, TRIM, UNICHAR, UNICODE, UPPER, VALUE",
        "Description[lv]": "ASC, BAHTTEXT, CHAR, CLEAN, CODE, COMPARE, CONCATENATE, DOLLAR, EXACT, FIND, FIXED, JIS, LEFT, LEN, LOWER, MID, PROPER, REGEXP, REGEXPRE, REPLACE, REPT, RIGHT, ROT, SEARCH, SLEEK, SUBSTITUTE, T, TEXT, TOGGLE, TRIM, UNICHAR, UNICODE, UPPER, VALUE",
        "Description[nl]": "ASC, BAHTTEXT, CHAR, CLEAN, CODE, COMPARE, CONCATENATE, DOLLAR, EXACT, FIND, FIXED, JIS, LEFT, LEN, LOWER, MID, PROPER, REGEXP, REGEXPRE, REPLACE, REPT, RIGHT, ROT, SEARCH, SLEEK, SUBSTITUTE, T, TEXT, TOGGLE, TRIM, UNICHAR, UNICODE, UPPER, VALUE",
        "Description[pl]": "ASC, BAHTTEXT, CHAR, CLEAN, CODE, COMPARE, CONCATENATE, DOLLAR, EXACT, FIND, FIXED, JIS, LEFT, LEN, LOWER, MID, PROPER, REGEXP, REGEXPRE, REPLACE, REPT, RIGHT, ROT, SEARCH, SLEEK, SUBSTITUTE, T, TEXT, TOGGLE, TRIM, UNICHAR, UNICODE, UPPER, VALUE",
        "Description[sl]": "ASC, BAHTTEXT, CHAR, CLEAN, CODE, COMPARE, CONCATENATE, DOLLAR, EXACT, FIND, FIXED, JIS, LEFT, LEN, LOWER, MID, PROPER, REGEXP, REGEXPRE, REPLACE, REPT, RIGHT, ROT, SEARCH, SLEEK, SUBSTITUTE, T, TEXT, TOGGLE, TRIM, UNICHAR, UNICODE, UPPER, VALUE",
        "Description[tr]": "ASC, BAHTTEXT, CHAR, CLEAN, CODE, COMPARE, CONCATENATE, DOLLAR, EXACT, FIND, FIXED, JIS, LEFT, LEN, LOWER, MID, PROPER, REGEXP, REGEXPRE, REPLACE, REPT, RIGHT, ROT, SEARCH, SLEEK, SUBSTITUTE, T, TEXT, TOGGLE, TRIM, UNICHAR, UNICODE, UPPER, VALUE",
        "Description[uk]": "ASC, BAHTTEXT, CHAR, CLEAN, CODE, COMPARE, CONCATENATE, DOLLAR, EXACT, FIND, FIXED, JIS, LEFT, LEN, LOWER, MID, PROPER, REGEXP, REGEXPRE, REPLACE, REPT, RIGHT, ROT, SEARCH, SLEEK, SUBSTITUTE, T, TEXT, TOGGLE, TRIM, UNICHAR, UNICODE, UPPER, VALUE",
        "Description[x-test]": "xxASC, BAHTTEXT, CHAR, CLEAN, CODE, COMPARE, CONCATENATE, DOLLAR, EXACT, FIND, FIXED, JIS, LEFT, LEN, LOWER, MID, PROPER, REGEXP, REGEXPRE, REPLACE, REPT, RIGHT, ROT, SEARCH, SLEEK, SUBSTITUTE, T, TEXT, TOGGLE, TRIM, UNICHAR, UNICODE, UPPER, VALUExx",
        "Description[zh_TW]": "ASC, BAHTTEXT, CHAR, CLEAN, CODE, COMPARE, CONCATENATE, DOLLAR, EXACT, FIND, FIXED, JIS, LEFT, LEN, LOWER, MID, PROPER, REGEXP, REGEXPRE, REPLACE, REPT, RIGHT, ROT, SEARCH, SLEEK, SUBSTITUTE, T, TEXT, TOGGLE, TRIM, UNICHAR, UNICODE, UPPER, VALUE",
        "EnabledByDefault": true,
        "Icon": "funct",
        "Id": "TextModule",
        "License": "GPL",
        "Name": "Text Functions",
        "Name[ca@valencia]": "Funcions de text",
        "Name[ca]": "Funcions de text",
        "Name[cs]": "Funkce textu",
        "Name[en_GB]": "Text Functions",
        "Name[eo]": "Tekstaj Funkcioj",
        "Name[es]": "Funciones de texto",
        "Name[fr]": "Fonctions de texte",
        "Name[gl]": "Funcións de texto",
        "Name[it]": "Funzioni di testo",
        "Name[ka]": "ტექსტური ფუნქციები",
        "Name[lv]": "Teksta funkcijas",
        "Name[nl]": "Tekstfuncties",
        "Name[pl]": "Funkcje tekstowe",
        "Name[sl]": "Besedilne funkcije",
        "Name[tr]": "Metin İşlevleri",
        "Name[uk]": "Текстові функції",
        "Name[x-test]": "xxText Functionsxx",
        "Name[zh_TW]": "文字函數",
        "ServiceTypes": [
            "CalligraSheets/Plugin",
            "KPluginInfo"
        ],
        "Version": "1.0",
        "Website": "http://www.calligra.org/"
    },
    "X-CalligraSheets-InterfaceVersion": "0"
}
